…
Let's calculate the total number of steps taken per day :


```r
act_date <- act %>% group_by(date)

date_sum <- act_date %>% summarise(stepssum = sum(steps,na.rm=TRUE)) 


date_sum
```

```
## # A tibble: 61 × 2
##          date stepssum
##        <fctr>    <int>
## 1  2012-10-01        0
## 2  2012-10-02      126
## 3  2012-10-03    11352
## 4  2012-10-04    12116
## 5  2012-10-05    13294
## 6  2012-10-06    15420
## 7  2012-10-07    11015
## 8  2012-10-08        0
## 9  2012-10-09    12811
## 10 2012-10-10     9900
## # ... with 51 more rows
```
…
##Mean per day
Let's calculate the mean of the total number of steps taken per day :


```r
date_mean <- act_date %>% summarise(stepsmean = mean(steps,na.rm=TRUE)) 
date_mean
```

```
## # A tibble: 61 × 2
##          date stepsmean
##        <fctr>     <dbl>
## 1  2012-10-01       NaN
## 2  2012-10-02   0.43750
## 3  2012-10-03  39.41667
## 4  2012-10-04  42.06944
## 5  2012-10-05  46.15972
## 6  2012-10-06  53.54167
## 7  2012-10-07  38.24653
## 8  2012-10-08       NaN
## 9  2012-10-09  44.48264
## 10 2012-10-10  34.37500
## # ... with 51 more rows
```

##Median per day
Let's calculate the median of the total number of steps taken per day :

```r
date_median <- act_date %>% summarise(stepsmed = mean(steps,na.rm=TRUE)) 
date_median
```

```
## # A tibble: 61 × 2
##          date stepsmed
##        <fctr>    <dbl>
## 1  2012-10-01      NaN
## 2  2012-10-02  0.43750
## 3  2012-10-03 39.41667
## 4  2012-10-04 42.06944
## 5  2012-10-05 46.15972
## 6  2012-10-06 53.54167
## 7  2012-10-07 38.24653
## 8  2012-10-08      NaN
## 9  2012-10-09 44.48264
## 10 2012-10-10 34.37500
## # ... with 51 more rows
```
…
###Mean of values
Let's calculate the mean of values with replaced NAs :

```r
date_nonna_mean <- act_nona_date %>% summarise(stepsmean = mean(steps,na.rm=TRUE)) 
date_nonna_mean
```

```
## # A tibble: 61 × 2
##          date stepsmean
##        <fctr>     <dbl>
## 1  2012-10-01  37.38260
## 2  2012-10-02   0.43750
## 3  2012-10-03  39.41667
## 4  2012-10-04  42.06944
## 5  2012-10-05  46.15972
## 6  2012-10-06  53.54167
## 7  2012-10-07  38.24653
## 8  2012-10-08  37.38260
## 9  2012-10-09  44.48264
## 10 2012-10-10  34.37500
## # ... with 51 more rows
```
…
```r
actWithoutNAwkd <- actWithoutNA %>% mutate(wkd = weekdays(as.Date(date)))
actWithoutNAwkd$wkd[actWithoutNAwkd$wkd %in% c("Monday","Tuesday","Wednesday","Thursday","Friday")] <- "weekday"
actWithoutNAwkd$wkd[actWithoutNAwkd$wkd %in% c("Saturday","Sunday")] <- "weekend"
```

##Average number of steps taken per day, averaged across all week days and week end days

```r
actWithoutNAwkdgrp <- actWithoutNAwkd %>% group_by(wkd,interval) %>% summarise(stepswkdint = sum(steps,na.rm=TRUE))
actWithoutNAwkdgrp
```

```
## Source: local data frame [576 x 3]
## Groups: wkd [?]
## 
##        wkd interval stepswkdint
##      <chr>    <int>       <dbl>
## 1  weekday        0  101.301887
## 2  weekday        5   20.037736
## 3  weekday       10    7.792453
## 4  weekday       15    8.905660
## 5  weekday       20    4.452830
## 6  weekday       25   71.566038
## 7  weekday       30   31.169811
## 8  weekday       35   51.207547
## 9  weekday       40    0.000000
## 10 weekday       45   80.830189
## # ... with 566 more rows
```
…
